<svg width="32px" height="32px" viewBox="0 0 32 32" version="1.1" xmlns="http://www.w3.org/2000/svg" xmlns:xlink="http://www.w3.org/1999/xlink">
    <g id="Page-1" stroke="none" stroke-width="1" fill="none" fill-rule="evenodd">
        <g id="Artboard">
            <g id="snapcraft-logo" transform="translate(-6.000000, -1.000000)">
                <polygon id="plate" points="0 0 148 0 148 32 0 32"/>
                <path d="M50.1809,22.0283 C51.0869,22.0283 51.8359,21.8783 52.4269,21.5793 C53.0179,21.2803 53.3129,20.7743 53.3129,20.0623 C53.3129,19.7223 53.2599,19.4303 53.1559,19.1883 C53.0499,18.9443 52.8759,18.7263 52.6329,18.5323 C52.3909,18.3373 52.0709,18.1523 51.6739,17.9743 C51.2769,17.7953 50.7879,17.5853 50.2049,17.3413 C49.7359,17.1483 49.2899,16.9503 48.8699,16.7473 C48.4489,16.5453 48.0769,16.3103 47.7529,16.0433 C47.4289,15.7763 47.1699,15.4573 46.9759,15.0843 C46.7829,14.7123 46.6849,14.2583 46.6849,13.7253 C46.6849,12.7043 47.0689,11.8793 47.8379,11.2483 C48.6069,10.6173 49.6629,10.3003 51.0069,10.3003 C51.8649,10.3003 52.5719,10.3733 53.1309,10.5193 C53.6899,10.6653 54.0819,10.7953 54.3089,10.9083 L53.9439,12.3163 C53.7499,12.2183 53.4229,12.0903 52.9609,11.9273 C52.4999,11.7663 51.8239,11.6853 50.9339,11.6853 C50.5769,11.6853 50.2419,11.7213 49.9259,11.7943 C49.6099,11.8673 49.3309,11.9813 49.0879,12.1343 C48.8449,12.2893 48.6509,12.4843 48.5059,12.7183 C48.3599,12.9543 48.2869,13.2423 48.2869,13.5823 C48.2869,13.9233 48.3519,14.2153 48.4809,14.4583 C48.6109,14.7023 48.8009,14.9173 49.0519,15.1033 C49.3029,15.2903 49.6099,15.4633 49.9749,15.6253 C50.3389,15.7863 50.7549,15.9633 51.2249,16.1563 C51.7109,16.3503 52.1759,16.5473 52.6209,16.7493 C53.0659,16.9503 53.4589,17.1933 53.7989,17.4763 C54.1379,17.7583 54.4139,18.0993 54.6239,18.4953 C54.8339,18.8923 54.9399,19.3903 54.9399,19.9893 C54.9399,21.1223 54.5149,21.9793 53.6649,22.5623 C52.8159,23.1453 51.6539,23.4373 50.1809,23.4373 C49.0799,23.4373 48.2379,23.3423 47.6559,23.1573 C47.0739,22.9713 46.6849,22.8303 46.4899,22.7323 L46.9029,21.2993 C46.9519,21.3323 47.0569,21.3843 47.2189,21.4583 C47.3809,21.5303 47.5989,21.6123 47.8739,21.7003 C48.1489,21.7903 48.4779,21.8673 48.8579,21.9313 C49.2379,21.9963 49.6789,22.0283 50.1809,22.0283" id="Fill-7" fill="#FFFFFF"/>
                <path d="M57.1077,11.0293 C57.5767,10.9003 58.2077,10.7543 59.0017,10.5923 C59.7947,10.4303 60.7657,10.3493 61.9147,10.3493 C62.8697,10.3493 63.6667,10.4873 64.3067,10.7623 C64.9457,11.0373 65.4557,11.4293 65.8367,11.9403 C66.2157,12.4503 66.4877,13.0603 66.6497,13.7733 C66.8117,14.4853 66.8927,15.2703 66.8927,16.1293 L66.8927,23.1453 L65.3137,23.1453 L65.3137,16.6383 C65.3137,15.7483 65.2537,14.9953 65.1317,14.3813 C65.0107,13.7653 64.8087,13.2633 64.5247,12.8743 C64.2417,12.4863 63.8697,12.2073 63.4087,12.0373 C62.9467,11.8673 62.3677,11.7823 61.6717,11.7823 C60.9267,11.7823 60.2847,11.8223 59.7427,11.9043 C59.1997,11.9843 58.8477,12.0573 58.6857,12.1223 L58.6857,23.1453 L57.1077,23.1453 L57.1077,11.0293 Z" id="Fill-9" fill="#FFFFFF"/>
                <path d="M73.7717,10.3008 C74.5977,10.3008 75.2977,10.4188 75.8737,10.6528 C76.4467,10.8878 76.9127,11.2118 77.2677,11.6248 C77.6257,12.0368 77.8827,12.5268 78.0457,13.0928 C78.2077,13.6598 78.2887,14.2748 78.2887,14.9388 L78.2887,22.8538 C78.1257,22.9028 77.8917,22.9548 77.5847,23.0118 C77.2767,23.0688 76.9207,23.1288 76.5157,23.1938 C76.1107,23.2578 75.6627,23.3108 75.1677,23.3518 C74.6737,23.3918 74.1687,23.4118 73.6507,23.4118 C72.9877,23.4118 72.3757,23.3398 71.8177,23.1938 C71.2587,23.0478 70.7737,22.8168 70.3607,22.5018 C69.9487,22.1858 69.6247,21.7818 69.3897,21.2878 C69.1557,20.7938 69.0387,20.1918 69.0387,19.4788 C69.0387,18.7988 69.1677,18.2168 69.4257,17.7308 C69.6847,17.2458 70.0487,16.8448 70.5187,16.5298 C70.9877,16.2128 71.5457,15.9818 72.1947,15.8368 C72.8407,15.6918 73.5447,15.6188 74.3057,15.6188 C74.5337,15.6188 74.7717,15.6308 75.0227,15.6548 C75.2737,15.6788 75.5167,15.7118 75.7507,15.7518 C75.9857,15.7928 76.1877,15.8328 76.3577,15.8738 C76.5287,15.9138 76.6457,15.9508 76.7097,15.9818 L76.7097,15.2058 C76.7097,14.7688 76.6767,14.3438 76.6127,13.9308 C76.5477,13.5178 76.4077,13.1458 76.1877,12.8138 C75.9687,12.4828 75.6627,12.2158 75.2647,12.0128 C74.8697,11.8108 74.3467,11.7098 73.6987,11.7098 C72.7767,11.7098 72.0887,11.7748 71.6357,11.9048 C71.1827,12.0338 70.8507,12.1388 70.6397,12.2188 L70.4217,10.8358 C70.6967,10.7058 71.1227,10.5848 71.6967,10.4708 C72.2707,10.3578 72.9627,10.3008 73.7717,10.3008 M73.9177,22.0038 C74.5337,22.0038 75.0717,21.9838 75.5337,21.9428 C75.9947,21.9028 76.3857,21.8498 76.7097,21.7858 L76.7097,17.3668 C76.5327,17.2858 76.2497,17.2008 75.8607,17.1118 C75.4717,17.0228 74.9377,16.9778 74.2577,16.9778 C73.8707,16.9778 73.4647,17.0068 73.0437,17.0628 C72.6237,17.1208 72.2337,17.2408 71.8777,17.4268 C71.5217,17.6128 71.2307,17.8688 71.0037,18.1918 C70.7787,18.5158 70.6647,18.9458 70.6647,19.4788 C70.6647,19.9488 70.7417,20.3448 70.8947,20.6688 C71.0487,20.9928 71.2667,21.2518 71.5497,21.4468 C71.8347,21.6398 72.1737,21.7818 72.5717,21.8708 C72.9667,21.9598 73.4167,22.0038 73.9177,22.0038" id="Fill-11" fill="#FFFFFF"/>
                <path d="M82.595,27.6367 L81.017,27.6367 L81.017,11.0297 C81.486,10.8677 82.084,10.7137 82.814,10.5687 C83.541,10.4227 84.463,10.3497 85.58,10.3497 C86.503,10.3497 87.341,10.4997 88.093,10.7987 C88.847,11.0977 89.493,11.5317 90.036,12.0977 C90.578,12.6647 90.998,13.3527 91.298,14.1607 C91.597,14.9707 91.747,15.8857 91.747,16.9057 C91.747,17.8607 91.622,18.7397 91.371,19.5397 C91.12,20.3407 90.752,21.0297 90.268,21.6027 C89.782,22.1787 89.187,22.6267 88.483,22.9507 C87.778,23.2757 86.972,23.4377 86.067,23.4377 C85.241,23.4377 84.525,23.3197 83.917,23.0847 C83.311,22.8497 82.869,22.6267 82.595,22.4167 L82.595,27.6367 Z M82.595,20.8867 C82.741,20.9997 82.922,21.1217 83.14,21.2517 C83.36,21.3807 83.614,21.5017 83.906,21.6157 C84.198,21.7287 84.513,21.8227 84.853,21.8947 C85.193,21.9677 85.547,22.0037 85.92,22.0037 C86.698,22.0037 87.349,21.8707 87.875,21.6027 C88.401,21.3367 88.825,20.9717 89.15,20.5107 C89.474,20.0487 89.708,19.5067 89.854,18.8837 C89.999,18.2607 90.073,17.6007 90.073,16.9057 C90.073,15.2537 89.659,13.9887 88.834,13.1057 C88.008,12.2227 86.916,11.7827 85.556,11.7827 C84.78,11.7827 84.153,11.8187 83.674,11.8907 C83.198,11.9637 82.837,12.0407 82.595,12.1217 L82.595,20.8867 Z" id="Fill-13" fill="#FFFFFF"/>
                <path d="M102.3811,22.5137 C102.2031,22.6267 101.9931,22.7297 101.7501,22.8177 C101.5071,22.9067 101.2441,22.9877 100.9601,23.0607 C100.6781,23.1337 100.3861,23.1897 100.0871,23.2307 C99.7871,23.2707 99.5081,23.2907 99.2491,23.2907 C97.4371,23.2907 96.0361,22.7437 95.0481,21.6517 C94.0621,20.5597 93.5681,19.0007 93.5681,16.9787 C93.5681,15.9577 93.6971,15.0437 93.9561,14.2347 C94.2151,13.4257 94.5831,12.7377 95.0621,12.1697 C95.5381,11.6047 96.1211,11.1717 96.8101,10.8707 C97.4961,10.5727 98.2691,10.4227 99.1271,10.4227 C99.8071,10.4227 100.3901,10.4717 100.8761,10.5687 C101.3611,10.6647 101.7901,10.8107 102.1621,11.0057 L101.9201,11.7587 C101.5961,11.5797 101.1921,11.4427 100.7061,11.3457 C100.2211,11.2477 99.6941,11.1997 99.1271,11.1997 C97.6221,11.1997 96.4641,11.7007 95.6551,12.7037 C94.8461,13.7077 94.4421,15.1327 94.4421,16.9787 C94.4421,18.7907 94.8511,20.1667 95.6681,21.1057 C96.4851,22.0437 97.6791,22.5137 99.2491,22.5137 C99.7181,22.5137 100.2361,22.4407 100.8031,22.2947 C101.3691,22.1497 101.8301,21.9717 102.1871,21.7617 L102.3811,22.5137 Z" id="Fill-15" fill="#FFFFFF"/>
                <path d="M105.5598,23.1455 L104.7338,23.1455 L104.7338,11.3205 C105.3168,11.0295 105.9268,10.8105 106.5678,10.6655 C107.2058,10.5195 107.8508,10.4465 108.4978,10.4465 C109.4358,10.4465 110.1808,10.5525 110.7318,10.7625 L110.5618,11.4905 C110.3188,11.4105 110.0108,11.3455 109.6388,11.2965 C109.2668,11.2485 108.8698,11.2245 108.4488,11.2245 C107.9628,11.2245 107.4648,11.2765 106.9558,11.3815 C106.4458,11.4875 105.9808,11.6365 105.5598,11.8305 L105.5598,23.1455 Z" id="Fill-17" fill="#FFFFFF"/>
                <path d="M120.3967,22.7324 C119.7967,22.9104 119.1467,23.0474 118.4427,23.1454 C117.7377,23.2424 117.0447,23.2914 116.3657,23.2914 C114.7797,23.2914 113.5827,22.9724 112.7727,22.3324 C111.9617,21.6924 111.5587,20.7414 111.5587,19.4784 C111.5587,18.2644 111.9797,17.3464 112.8217,16.7234 C113.6627,16.1004 114.9337,15.7884 116.6327,15.7884 C117.1187,15.7884 117.6357,15.8334 118.1867,15.9214 C118.7377,16.0114 119.1987,16.1204 119.5717,16.2494 L119.5717,15.3014 C119.5717,13.8464 119.2987,12.7944 118.7567,12.1464 C118.2147,11.4994 117.2807,11.1744 115.9537,11.1744 C115.4357,11.1744 114.9047,11.2284 114.3627,11.3334 C113.8207,11.4384 113.3877,11.5724 113.0637,11.7334 L112.9427,10.9574 C113.7677,10.5854 114.8197,10.3984 116.0987,10.3984 C117.5877,10.3984 118.6757,10.7834 119.3647,11.5514 C120.0517,12.3204 120.3967,13.4174 120.3967,14.8404 L120.3967,22.7324 Z M119.5717,16.9784 C119.1827,16.8334 118.7457,16.7184 118.2587,16.6384 C117.7747,16.5574 117.2407,16.5174 116.6577,16.5174 C113.8397,16.5174 112.4327,17.5034 112.4327,19.4784 C112.4327,20.5154 112.7597,21.2804 113.4157,21.7734 C114.0717,22.2674 115.0947,22.5134 116.4877,22.5134 C116.9717,22.5134 117.4867,22.4864 118.0297,22.4294 C118.5717,22.3724 119.0847,22.2794 119.5717,22.1504 L119.5717,16.9784 Z" id="Fill-19" fill="#FFFFFF"/>
                <path d="M123.761,23.1455 L122.935,23.1455 L122.935,9.0875 C122.935,7.4365 123.286,6.2265 123.99,5.4575 C124.696,4.6885 125.759,4.3035 127.184,4.3035 C127.636,4.3035 128.071,4.3485 128.484,4.4375 C128.896,4.5265 129.215,4.6275 129.443,4.7405 L129.248,5.4935 C128.956,5.3645 128.62,5.2635 128.24,5.1905 C127.86,5.1175 127.507,5.0815 127.184,5.0815 C126.034,5.0815 125.176,5.3845 124.611,5.9915 C124.043,6.5985 123.761,7.6465 123.761,9.1355 L123.761,10.6895 L129.004,10.6895 L129.004,11.4665 L123.761,11.4665 L123.761,23.1455 Z" id="Fill-21" fill="#FFFFFF"/>
                <path d="M137.6848,22.6357 C137.3448,22.8137 136.9318,22.9677 136.4468,23.0967 C135.9598,23.2267 135.4828,23.2907 135.0138,23.2907 C133.7188,23.2907 132.7638,22.9587 132.1488,22.2947 C131.5338,21.6317 131.2258,20.4837 131.2258,18.8477 L131.2258,6.8047 L132.0518,6.6107 L132.0518,10.6897 L137.1258,10.6897 L137.1258,11.4177 L132.0518,11.4177 L132.0518,18.9697 C132.0518,19.6647 132.1158,20.2437 132.2458,20.7047 C132.3738,21.1657 132.5698,21.5307 132.8288,21.7977 C133.0878,22.0657 133.3998,22.2507 133.7628,22.3557 C134.1278,22.4607 134.5438,22.5137 135.0138,22.5137 C135.4988,22.5137 135.9648,22.4487 136.4098,22.3197 C136.8548,22.1907 137.2058,22.0527 137.4658,21.9067 L137.6848,22.6357 Z" id="Fill-23" fill="#FFFFFF"/>
                <polygon id="Fill-25" fill="#82BFA1" points="24.719 8.2803 31.643 11.3573 24.719 18.2813"/>
                <polygon id="Fill-27" fill="#82BFA1" points="11.5002 31.5 23.7162 19.284 19.9892 15.58"/>
                <polygon id="Fill-29" fill="#82BFA1" points="6.6575 1.5 24.1325 18.868 24.1325 7.816"/>
                <polygon id="Fill-31" fill="#FA6340" points="35.1848 7.8154 25.1218 7.8154 38.0598 13.5654"/>
            </g>
        </g>
    </g>
</svg>
