<?xml version="1.0" encoding="UTF-8"?>
<svg width="32" height="32" version="1.1" viewBox="0 0 32 32" xmlns="http://www.w3.org/2000/svg">
 <rect width="32" height="32" rx="4" ry="4" fill="#1185fe" style="paint-order:markers stroke fill"/>
 <path d="m9.2023 6.8566c2.7516 2.0657 5.711 6.2542 6.7977 8.5018 1.0867-2.2476 4.0462-6.4361 6.7977-8.5018 1.9854-1.4905 5.2023-2.6438 5.2023 1.026 0 0.73293-0.42021 6.1569-0.66668 7.0375-0.85669 3.0614-3.9784 3.8422-6.7553 3.3696 4.8539 0.8261 6.0886 3.5624 3.422 6.2988-5.0645 5.1968-7.2791-1.3039-7.8466-2.9696-0.10403-0.30536-0.1527-0.44822-0.15342-0.32674-7.2e-4 -0.12148-0.0494 0.0214-0.15342 0.32674-0.56747 1.6657-2.7821 8.1665-7.8466 2.9696-2.6667-2.7363-1.4319-5.4727 3.422-6.2988-2.7769 0.47261-5.8986-0.30824-6.7553-3.3696-0.24647-0.88065-0.66668-6.3046-0.66668-7.0375 0-3.6698 3.2169-2.5165 5.2023-1.026z" fill="#fff" stroke-width=".042254"/>
</svg>
